%YAML 1.1
%TAG !u! tag:unity3d.com,2011:
--- !u!1045 &1
EditorBuildSettings:
  m_ObjectHideFlags: 0
  serializedVersion: 2
  m_Scenes:
  - enabled: 1
    path: Assets/Scenes/Menu.unity
    guid: 2cda990e2423bbf4892e6590ba056729
  - enabled: 1
    path: Assets/Scenes/Game.unity
    guid: 9847c6ef53268e847a349423439607e7
  - enabled: 1
    path: Assets/Scenes/End.unity
    guid: 6a11982ad6318084b95fd50e2d096030
  m_configObjects: {}
